…
 [1] "trip_id"           "start_time"        "end_time"         
 [4] "bikeid"            "tripduration"      "from_station_id"  
 [7] "from_station_name" "to_station_id"     "to_station_name"  
[10] "usertype"          "gender"            "birthyear"        
> (q4_2019 <- rename(q4_2019#
+                    ,ride_id = trip_id#
+                    ,rideable_type = bikeid #
+                    ,started_at = start_time  #
+                    ,ended_at = end_time  #
+                    ,start_station_name = from_station_name #
+                    ,start_station_id = from_station_id #
+                    ,end_station_name = to_station_name #
+                    ,end_station_id = to_station_id #
+                    ,member_casual = usertype))#
# A tibble: 704,054 × 12
    ride_id started_at          ended_at            rideable_type tripduration
      <dbl> <dttm>              <dttm>                      <dbl>        <dbl>
 1 25223640 2019-10-01 00:01:39 2019-10-01 00:17:20          2215          940
 2 25223641 2019-10-01 00:02:16 2019-10-01 00:06:34          6328          258
 3 25223642 2019-10-01 00:04:32 2019-10-01 00:18:43          3003          850
 4 25223643 2019-10-01 00:04:32 2019-10-01 00:43:43          3275         2350
 5 25223644 2019-10-01 00:04:34 2019-10-01 00:35:42          5294         1867
 6 25223645 2019-10-01 00:04:38 2019-10-01 00:10:51          1891          373
 7 25223646 2019-10-01 00:04:52 2019-10-01 00:22:45          1061         1072
 8 25223647 2019-10-01 00:04:57 2019-10-01 00:29:16          1274         1458
 9 25223648 2019-10-01 00:05:20 2019-10-01 00:29:18          6011         1437
10 25223649 2019-10-01 00:05:20 2019-10-01 02:23:46          2957         8306
# ℹ 704,044 more rows
# ℹ 7 more variables: start_station_id <dbl>, start_station_name <chr>,
#   end_station_id <dbl>, end_station_name <chr>, member_casual <chr>,
#   gender <chr>, birthyear <dbl>
# ℹ Use `print(n = ...)` to see more rows
> #
> (q3_2019 <- rename(q3_2019#
+                    ,ride_id = trip_id#
+                    ,rideable_type = bikeid #
+                    ,started_at = start_time  #
+                    ,ended_at = end_time  #
+                    ,start_station_name = from_station_name #
+                    ,start_station_id = from_station_id #
+                    ,end_station_name = to_station_name #
+                    ,end_station_id = to_station_id #
+                    ,member_casual = usertype))#
# A tibble: 1,640,718 × 12
    ride_id started_at          ended_at            rideable_type tripduration
      <dbl> <dttm>              <dttm>                      <dbl>        <dbl>
 1 23479388 2019-07-01 00:00:27 2019-07-01 00:20:41          3591         1214
 2 23479389 2019-07-01 00:01:16 2019-07-01 00:18:44          5353         1048
 3 23479390 2019-07-01 00:01:48 2019-07-01 00:27:42          6180         1554
 4 23479391 2019-07-01 00:02:07 2019-07-01 00:27:10          5540         1503
 5 23479392 2019-07-01 00:02:13 2019-07-01 00:22:26          6014         1213
 6 23479393 2019-07-01 00:02:21 2019-07-01 00:07:31          4941          310
 7 23479394 2019-07-01 00:02:24 2019-07-01 00:23:12          3770         1248
 8 23479395 2019-07-01 00:02:26 2019-07-01 00:28:16          5442         1550
 9 23479396 2019-07-01 00:02:34 2019-07-01 00:28:57          2957         1583
10 23479397 2019-07-01 00:02:45 2019-07-01 00:29:14          6091         1589
# ℹ 1,640,708 more rows
# ℹ 7 more variables: start_station_id <dbl>, start_station_name <chr>,
#   end_station_id <dbl>, end_station_name <chr>, member_casual <chr>,
#   gender <chr>, birthyear <dbl>
# ℹ Use `print(n = ...)` to see more rows
> #
> (q2_2019 <- rename(q2_2019#
+                    ,ride_id = "01 - Rental Details Rental ID"#
+                    ,rideable_type = "01 - Rental Details Bike ID" #
+                    ,started_at = "01 - Rental Details Local Start Time"  #
+                    ,ended_at = "01 - Rental Details Local End Time"  #
+                    ,start_station_name = "03 - Rental Start Station Name" #
+                    ,start_station_id = "03 - Rental Start Station ID"#
+                    ,end_station_name = "02 - Rental End Station Name" #
+                    ,end_station_id = "02 - Rental End Station ID"#
+                    ,member_casual = "User Type"))#
# A tibble: 1,108,163 × 12
    ride_id started_at          ended_at            rideable_type
      <dbl> <dttm>              <dttm>                      <dbl>
 1 22178529 2019-04-01 00:02:22 2019-04-01 00:09:48          6251
 2 22178530 2019-04-01 00:03:02 2019-04-01 00:20:30          6226
 3 22178531 2019-04-01 00:11:07 2019-04-01 00:15:19          5649
 4 22178532 2019-04-01 00:13:01 2019-04-01 00:18:58          4151
 5 22178533 2019-04-01 00:19:26 2019-04-01 00:36:13          3270
 6 22178534 2019-04-01 00:19:39 2019-04-01 00:23:56          3123
 7 22178535 2019-04-01 00:26:33 2019-04-01 00:35:41          6418
 8 22178536 2019-04-01 00:29:48 2019-04-01 00:36:11          4513
 9 22178537 2019-04-01 00:32:07 2019-04-01 01:07:44          3280
10 22178538 2019-04-01 00:32:19 2019-04-01 01:07:39          5534
# ℹ 1,108,153 more rows
# ℹ 8 more variables:
#   `01 - Rental Details Duration In Seconds Uncapped` <dbl>,
#   start_station_id <dbl>, start_station_name <chr>, end_station_id <dbl>,
#   end_station_name <chr>, member_casual <chr>, `Member Gender` <chr>,
#   `05 - Member Details Member Birthday Year` <dbl>
# ℹ Use `print(n = ...)` to see more rows
…
